0,熱海
1,函南
2,三島
3,沼津
4,片浜
5,原
6,東田子の浦
7,吉原
8,富士
9,富士川
10,新蒲原
11,蒲原
12,由比
13,興津
14,清水
15,草薙
16,東静岡
17,静岡
18,安倍川
19,用宗
20,焼津
21,西焼津
22,藤枝
23,六合
24,島田
25,金谷
26,菊川
27,掛川
28,愛野
29,袋井
30,御厨
31,磐田
32,豊田町
33,天竜川
34,浜松
35,高塚
36,舞阪
37,弁天島
38,新居町
39,鷲津
40,新所原
41,二川
42,豊橋
43,西小坂井
44,愛知御津
45,三河大塚
46,三河三谷
47,蒲郡
48,三河塩津
49,三ヶ根
50,幸田
51,相見
52,岡崎
53,西岡崎
54,安城
55,三河安城
56,東刈谷
57,野田新町
58,刈谷
59,逢妻
60,大府
61,共和
62,南大高
63,大高
64,笠寺
65,熱田
66,金山
67,尾頭橋
68,名古屋
69,枇杷島
70,清洲
71,稲沢
72,尾張一宮
73,木曽川
74,岐阜
75,西岐阜
76,穂積
77,大垣
78,垂井
79,関ケ原
80,柏原
81,近江長岡
82,醒ヶ井
83,米原
84,荒尾
85,美濃赤坂
99,岐阜貨タ
100,国府津
101,下曽我
102,上大井
103,相模金子
104,松田
105,東山北
106,山北
107,谷峨
108,駿河小山
109,足柄
110,御殿場
111,南御殿場
112,富士岡
113,岩波
114,裾野
115,長泉なめり
116,下土狩
117,大岡
150,国府津(御殿場線)
151,熱海(御殿場線)
152,三島(御殿場線)
153,沼津(御殿場線)
154,富士(御殿場線)
155,静岡(御殿場線)
156,島田(御殿場線)
157,浜松(御殿場線)
158,豊橋(御殿場線)
201,柚木
202,竪堀
203,入山瀬
204,富士根
205,源道寺
206,富士宮
207,西富士宮
208,沼久保
209,芝川
210,稲子
211,十島
212,井出
213,寄畑
214,内船
215,甲斐大島
216,身延
217,塩之沢
218,波高島
219,下部温泉
220,甲斐常葉
221,市ノ瀬
222,久那土
223,甲斐岩間
224,落居
225,鰍沢口
226,市川大門
227,市川本町
228,芦川
229,甲斐上野
230,東花輪
231,小井川
232,常永
233,国母
234,甲斐住吉
235,南甲府
236,善光寺
237,金手
238,甲府
301,船町
302,下地
303,小坂井
304,牛久保
305,豊川
306,三河一宮
307,長山
308,江島
309,東上
310,野田城
311,新城
312,東新町
313,茶臼山
314,三河東郷
315,大海
316,鳥居
317,長篠城
318,本長篠
319,三河大野
320,湯谷温泉
321,三河槙原
322,柿平
323,三河川合
324,池場
325,東栄
326,出馬
327,上市場
328,浦川
329,早瀬
330,下川合
331,中部天竜
332,佐久間
333,相月
334,城西
335,向市場
336,水窪
337,大嵐
338,小和田
339,中井侍
340,伊那小沢
341,鴬巣
342,平岡
343,為栗
344,温田
345,田本
346,門島
347,唐笠
348,金野
349,千代
350,天竜峡
351,川路
352,時又
353,駄科
354,毛賀
355,伊那八幡
356,下山村
357,鼎
358,切石
359,飯田
360,桜町
361,伊那上郷
362,元善光寺
363,下市田
364,市田
365,下平
366,山吹
367,伊那大島
368,上片桐
369,伊那田島
370,高遠原
371,七久保
372,伊那本郷
373,飯島
374,田切
375,伊那福岡
376,小町屋
377,駒ヶ根
378,大田切
379,宮田
380,赤木
381,沢渡
382,下島
383,伊那市
384,伊那北
385,田畑
386,北殿
387,木ノ下
388,伊那松島
389,沢
390,羽場
391,伊那新町
392,宮木
393,辰野
399,大沢
401,尾張森岡
402,緒川
403,石浜
404,東浦
405,亀崎
406,乙川
407,半田
408,東成岩
409,武豊
502,鶴舞
503,千種
504,大曽根
505,新守山
506,勝川
507,春日井
508,神領
509,高蔵寺
510,定光寺
511,古虎渓
512,多治見
513,土岐市
514,瑞浪
515,釜戸
516,武並
517,恵那
518,美乃坂本
519,中津川
520,落合川
521,坂下
522,田立
523,南木曽
524,十二兼
525,野尻
526,大桑
527,須原
528,倉本
529,上松
530,木曽福島
531,原野
532,宮ノ越
533,藪原
534,奈良井
535,木曽平沢
536,贄川
537,日出塩
538,洗馬
539,塩尻
591,山王
601,長森
602,那加
603,蘇原
604,各務ヶ原
605,鵜沼
606,坂祝
607,美濃太田
608,古井
609,中川辺
610,下麻生
611,上麻生
612,白川口
613,下油井
614,飛騨金山
615,焼石
616,下呂
617,禅昌寺
618,飛騨萩原
619,上呂
620,飛騨宮田
621,飛騨小坂
622,渚
623,久々野
624,飛騨一ノ宮
625,高山
626,上枝
627,飛騨国府
628,飛騨古川
629,杉崎
630,飛騨細江
631,角川
632,坂上
633,打保
634,杉原
635,猪谷
691,飛水峡
692,鷲原
693,福来
694,少ケ野
801,美濃川合
802,可児
803,下切
804,姫
805,根本
806,小泉
901,八田
902,春田
903,蟹江
904,永和
905,弥富
906,長島
907,桑名
908,朝日
909,富田
910,富田浜
911,四日市
912,南四日市
913,河原田
914,河曲
915,加佐登
916,井田川
917,亀山
991,笹島
992,白鳥
993,朝明
1001,下庄
1002,一身田
1003,津
1004,阿漕
1005,高茶屋
1006,六軒
1007,松阪
1008,徳和
1009,多気
1010,相可
1011,佐奈
1012,栃原
1013,川添
1014,三瀬谷
1015,滝原
1016,阿曽
1017,伊勢柏崎
1018,大内山
1019,梅ケ谷
1020,紀伊長島
1021,三野瀬
1022,船津
1023,相賀
1024,尾鷲
1025,大曽根浦
1026,九鬼
1027,三木里
1028,賀田
1029,二木島
1030,新鹿
1031,波田須
1032,大泊
1033,熊野市
1034,有井
1035,神志山
1036,紀伊市木
1037,阿田和
1038,紀伊井田
1039,鵜殿
1040,新宮
1101,外城田
1102,田丸
1103,宮川
1104,山田上口
1105,伊勢市
1106,五十鈴ケ丘
1107,二見浦
1108,松下
1109,鳥羽
1201,伊勢八太
1202,一志
1203,井関
1204,伊勢大井
1205,伊勢川口
1206,関ノ宮
1207,家城
1208,伊勢竹原
1209,伊勢鎌倉
1210,伊勢八知
1211,比津
1212,伊勢奥津
1301,川岸
1302,茅野
1303,上諏訪
1304,下諏訪
1305,岡谷
1306,みどり湖
1307,信濃川島
1308,小野
1309,広丘
1310,村井
1311,平田
1312,南松本
1313,松本
1400,三輪崎
1401,紀伊佐野
1402,宇久井
1403,那智
1404,紀伊天満
1405,紀伊勝浦
2002,六名
2003,中岡崎
2004,北岡崎
2005,大門
2006,北野桝塚
2007,三河上郷
2008,永覚
2009,末野原
2010,三河豊田
2011,新上挙母
2012,新豊田
2013,愛環梅坪
2014,四郷
2015,貝津
2016,保見
2017,篠原
2018,八草
2019,山口
2020,瀬戸口
2021,瀬戸市
2022,中水野
2051,岡崎(高蔵寺)
2056,北野桝塚(高蔵寺)
2062,新豊田(高蔵寺)
2068,八草(高蔵寺)
2070,瀬戸口(高蔵寺)
2101,鈴鹿
2102,玉垣
2103,鈴鹿サーキット稲生
2104,徳田
2105,中瀬古
2106,伊勢上野
2107,河芸
2108,東一身田
2201,味美
2202,比良
2203,小田井
2204,尾張星の宮
3033,神宮前
3034,金山
3035,ﾅｺﾞﾔ球場前
3036,新名古屋
3037,栄生
3038,東枇杷島
3101,下小田井
3102,中小田井
3103,上小田井
3104,西春
3105,徳重
3106,大山寺
3107,岩倉
3108,石仏
3109,布袋
3110,江南
3111,柏森
3112,扶桑
3113,木津用水
3114,犬山口
3115,犬山
3116,犬山遊園
3117,新鵜沼
5101,砂丘入口
5102,中田島国道
5103,白羽町
5104,三島町北
5105,竜禅寺町
5106,浜松
5107,伝馬町
5108,市役所前
5109,浜松北高
5110,富塚町
5111,大平台
5112,西鴨江
5113,志都呂
5114,雄踏
5115,浜名湖庭園
5116,湖西鷲津
5117,運動公園
5118,新所原
5119,二川宿
5120,牧野
5121,浜鉄豊橋
6317,平湯温泉
6507,栃尾
6508,新平湯温泉
6509,白骨温泉
6510,のりくら高原
6511,奈川渡
6512,あづみ
6513,新島々
6514,山形
6515,まつもと空港
6516,芳川
6517,宮田
6518,松本
6519,松本城
6520,信州大学
6521,浅間温泉
6522,三才山
6523,美鈴湖
6701,堅石
6702,塩尻泉
6703,小坂田
6704,みどり湖温泉
6705,岡谷本町
6706,秋宮口
6707,諏訪大和
6708,手長神社
6709,諏訪福島
6710,諏訪大社
6711,諏訪前宮
6712,横内下河原
6713,茅野
8000,幻想郷
9001,八百万
9002,大歳
9003,葉符
9004,安芸之空
9005,静葉
9006,秋神
9007,穣子
9008,焼芋
9009,稲田姫
9010,厄神
9011,鍵山
9012,雛の台
9013,大鐘
9014,流比奈
9015,不幸谷
9016,間欠泉前
9017,光学町
9018,芥川
9019,蒲穂
9020,河城
9021,にとり
9022,弓里
9023,幻想大瀑布
9024,野蒜
9025,大滝
9026,犬走
9027,もみじが丘
9028,千里
9029,走狗
9030,射命丸
9031,鴉
9032,岐符
9033,猿田彦
9034,八衢
9035,山颪
9036,葉団扇
9037,大天狗
9038,天孫
9039,御渡
9040,照國
9041,塞の神
9042,立風露
9043,天狗道
9044,祭儀
9045,東風谷
9090,御柱前
9080,神粥
9081,葛井
9082,目処梃子
9083,御射山
9084,天竜
9085,御天水
9086,杉結
9087,八坂山
9088,八坂神社
9046,早苗
9047,風祝
9048,客星
9049,開海
9050,五芒星
9051,神風
9052,九字
9053,米乃雨
9054,御神籤
9055,翡翠
9056,宝永
9057,御赤口
9058,七石
9059,洩矢
9060,諏訪大社
9061,足長神社